EESchema Schematic File Version 4
EELAYER 30 0
EELAYER END
$Descr A4 11693 8268
encoding utf-8
Sheet 1 2
Title ""
Date ""
Rev ""
Comp ""
Comment1 ""
Comment2 ""
Comment3 ""
Comment4 ""
$EndDescr
$Comp
L MDJ_compo:V2P5A #PWR0112
U 1 1 5912AAC7
P 3850 875
F 0 "#PWR0112" H 3850 725 50  0001 C CNN
F 1 "V2P5A" H 3850 1015 39  0000 C CNN
F 2 "" H 3850 875 50  0000 C CNN
F 3 "" H 3850 875 50  0000 C CNN
	1    3850 875 
	1    0    0    -1  
$EndComp
Text Label 4700 2875 0    39   ~ 0
B_Leak
Text Label 4700 2775 0    39   ~ 0
B_Ch
Text Label 4700 1975 0    39   ~ 0
Temp_APD
Text Label 4700 1575 0    39   ~ 0
D_Leak
Text Label 4700 1475 0    39   ~ 0
D_Ch
$Comp
L power:GNDA #PWR0111
U 1 1 5912B509
P 3750 3525
F 0 "#PWR0111" H 3750 3275 50  0001 C CNN
F 1 "GNDA" H 3750 3375 39  0000 C CNN
F 2 "" H 3750 3525 50  0000 C CNN
F 3 "" H 3750 3525 50  0000 C CNN
	1    3750 3525
	1    0    0    -1  
$EndComp
$Comp
L power:GNDA #PWR0115
U 1 1 5912B51F
P 4550 3525
F 0 "#PWR0115" H 4550 3275 50  0001 C CNN
F 1 "GNDA" H 4550 3375 39  0000 C CNN
F 2 "" H 4550 3525 50  0000 C CNN
F 3 "" H 4550 3525 50  0000 C CNN
	1    4550 3525
	1    0    0    -1  
$EndComp
Text Label 2750 1325 2    50   ~ 0
ReSync-
Text Label 2750 1225 2    50   ~ 0
ReSync+
$Comp
L MDJ_compo:ERNI-154765 J102
U 1 1 5913027C
P 1750 5675
F 0 "J102" H 1750 4225 60  0000 C CNN
F 1 "ERNI-154765" V 1750 5675 39  0000 C CNN
F 2 "MDJ_mod:ERNI-154765" H 1650 5675 60  0001 C CNN
F 3 "" H 1650 5675 60  0000 C CNN
	1    1750 5675
	-1   0    0    -1  
$EndComp
$Comp
L MDJ_compo:ERNI-154765 J101
U 1 1 59130396
P 1750 2225
F 0 "J101" H 1750 775 60  0000 C CNN
F 1 "ERNI-154765" V 1750 2225 60  0000 C CNN
F 2 "MDJ_mod:ERNI-154765" H 1650 2225 60  0001 C CNN
F 3 "" H 1650 2225 60  0000 C CNN
	1    1750 2225
	-1   0    0    -1  
$EndComp
Text Label 800  1025 0    39   ~ 0
I2C_SCL_CATIA
Text Label 800  1125 0    39   ~ 0
I2C_SDA_CATIA
Text Label 2750 1925 2    50   ~ 0
A_D0-
Text Label 2750 1825 2    50   ~ 0
A_D0+
Text Label 2750 1625 2    50   ~ 0
A_Clk-
Text Label 2750 1525 2    50   ~ 0
A_Clk+
Text Label 2750 6875 2    39   ~ 0
Temp_CATIA
Text Label 750  6875 0    39   ~ 0
CalibMode
$Comp
L MDJ_compo:IPT125_R P101
U 1 1 5914B3B6
P 4200 2175
F 0 "P101" H 4200 3475 39  0000 C CNN
F 1 "CONN_IPT125" V 4200 2175 39  0000 C CNN
F 2 "MDJ_mod:Samtec_IPT125_R" H 4200 850 39  0000 C CNN
F 3 "" H 4200 1425 50  0000 C CNN
	1    4200 2175
	1    0    0    -1  
$EndComp
$Comp
L power:GNDD #PWR0119
U 1 1 594A9767
P 6125 7350
F 0 "#PWR0119" H 6125 7100 50  0001 C CNN
F 1 "GNDD" H 6125 7200 50  0000 C CNN
F 2 "" H 6125 7350 50  0000 C CNN
F 3 "" H 6125 7350 50  0000 C CNN
	1    6125 7350
	1    0    0    -1  
$EndComp
$Comp
L power:GNDA #PWR0120
U 1 1 594A9A8D
P 6325 7350
F 0 "#PWR0120" H 6325 7100 50  0001 C CNN
F 1 "GNDA" H 6325 7200 50  0000 C CNN
F 2 "" H 6325 7350 50  0000 C CNN
F 3 "" H 6325 7350 50  0000 C CNN
	1    6325 7350
	1    0    0    -1  
$EndComp
$Comp
L MDJ_compo:Hole W101
U 1 1 59A6789A
P 3400 7475
F 0 "W101" H 3400 7745 50  0000 C CNN
F 1 "Hole" H 3400 7675 50  0000 C CNN
F 2 "MDJ_mod:1pin_2.7" H 3600 7475 50  0001 C CNN
F 3 "" H 3600 7475 50  0000 C CNN
	1    3400 7475
	1    0    0    -1  
$EndComp
$Comp
L MDJ_compo:Hole W102
U 1 1 59A684ED
P 3550 7475
F 0 "W102" H 3550 7745 50  0000 C CNN
F 1 "Hole" H 3550 7675 50  0000 C CNN
F 2 "MDJ_mod:1pin_2.7" H 3750 7475 50  0001 C CNN
F 3 "" H 3750 7475 50  0000 C CNN
	1    3550 7475
	1    0    0    -1  
$EndComp
$Comp
L MDJ_compo:Hole W103
U 1 1 59A68821
P 3700 7475
F 0 "W103" H 3700 7745 50  0000 C CNN
F 1 "Hole" H 3700 7675 50  0000 C CNN
F 2 "MDJ_mod:1pin_2.7" H 3900 7475 50  0001 C CNN
F 3 "" H 3900 7475 50  0000 C CNN
	1    3700 7475
	1    0    0    -1  
$EndComp
$Comp
L MDJ_compo:Hole W104
U 1 1 59A68B59
P 3850 7475
F 0 "W104" H 3850 7745 50  0000 C CNN
F 1 "Hole" H 3850 7675 50  0000 C CNN
F 2 "MDJ_mod:1pin_2.7" H 4050 7475 50  0001 C CNN
F 3 "" H 4050 7475 50  0000 C CNN
	1    3850 7475
	1    0    0    -1  
$EndComp
$Comp
L MDJ_compo:Hole W105
U 1 1 59A68E96
P 4000 7475
F 0 "W105" H 4000 7745 50  0000 C CNN
F 1 "Hole" H 4000 7675 50  0000 C CNN
F 2 "MDJ_mod:1pin_2.7" H 4200 7475 50  0001 C CNN
F 3 "" H 4200 7475 50  0000 C CNN
	1    4000 7475
	1    0    0    -1  
$EndComp
$Comp
L MDJ_compo:Hole W109
U 1 1 59A691D2
P 4600 7475
F 0 "W109" H 4600 7745 50  0000 C CNN
F 1 "Hole" H 4600 7675 50  0000 C CNN
F 2 "MDJ_mod:1pin_2.7" H 4800 7475 50  0001 C CNN
F 3 "" H 4800 7475 50  0000 C CNN
	1    4600 7475
	1    0    0    -1  
$EndComp
$Comp
L MDJ_compo:Hole W106
U 1 1 59A694EA
P 4150 7475
F 0 "W106" H 4150 7745 50  0000 C CNN
F 1 "Hole" H 4150 7675 50  0000 C CNN
F 2 "MDJ_mod:1pin_2.7" H 4350 7475 50  0001 C CNN
F 3 "" H 4350 7475 50  0000 C CNN
	1    4150 7475
	1    0    0    -1  
$EndComp
$Comp
L MDJ_compo:Hole W110
U 1 1 59A69A1E
P 4750 7475
F 0 "W110" H 4750 7745 50  0000 C CNN
F 1 "Hole" H 4750 7675 50  0000 C CNN
F 2 "MDJ_mod:1pin_2.7" H 4950 7475 50  0001 C CNN
F 3 "" H 4950 7475 50  0000 C CNN
	1    4750 7475
	1    0    0    -1  
$EndComp
$Comp
L MDJ_compo:Hole W111
U 1 1 59A69D63
P 4900 7475
F 0 "W111" H 4900 7745 50  0000 C CNN
F 1 "Hole" H 4900 7675 50  0000 C CNN
F 2 "MDJ_mod:1pin_2.7" H 5100 7475 50  0001 C CNN
F 3 "" H 5100 7475 50  0000 C CNN
	1    4900 7475
	1    0    0    -1  
$EndComp
$Comp
L MDJ_compo:Hole W112
U 1 1 59A6A0AB
P 5050 7475
F 0 "W112" H 5050 7745 50  0000 C CNN
F 1 "Hole" H 5050 7675 50  0000 C CNN
F 2 "MDJ_mod:1pin_2.7" H 5250 7475 50  0001 C CNN
F 3 "" H 5250 7475 50  0000 C CNN
	1    5050 7475
	1    0    0    -1  
$EndComp
$Comp
L MDJ_compo:Hole W113
U 1 1 59A6A3F6
P 5200 7475
F 0 "W113" H 5200 7745 50  0000 C CNN
F 1 "Hole" H 5200 7675 50  0000 C CNN
F 2 "MDJ_mod:1pin_2.7" H 5400 7475 50  0001 C CNN
F 3 "" H 5400 7475 50  0000 C CNN
	1    5200 7475
	1    0    0    -1  
$EndComp
$Comp
L MDJ_compo:Hole W114
U 1 1 59A6A744
P 5350 7475
F 0 "W114" H 5350 7745 50  0000 C CNN
F 1 "Hole" H 5350 7675 50  0000 C CNN
F 2 "MDJ_mod:1pin_2.7" H 5550 7475 50  0001 C CNN
F 3 "" H 5550 7475 50  0000 C CNN
	1    5350 7475
	1    0    0    -1  
$EndComp
$Comp
L power:GNDA #PWR0118
U 1 1 59A6D08C
P 5500 7475
F 0 "#PWR0118" H 5500 7225 50  0001 C CNN
F 1 "GNDA" H 5500 7325 50  0000 C CNN
F 2 "" H 5500 7475 50  0000 C CNN
F 3 "" H 5500 7475 50  0000 C CNN
	1    5500 7475
	1    0    0    -1  
$EndComp
$Comp
L MDJ_compo:Hole_2.0 W107
U 1 1 59A6F5F3
P 4300 7475
F 0 "W107" H 4300 7745 50  0000 C CNN
F 1 "Hole_2.0" H 4300 7675 50  0000 C CNN
F 2 "MDJ_mod:1pin_2.0" H 4500 7475 50  0001 C CNN
F 3 "" H 4500 7475 50  0000 C CNN
	1    4300 7475
	1    0    0    -1  
$EndComp
$Comp
L MDJ_compo:Hole_2.0 W108
U 1 1 59A6F960
P 4450 7475
F 0 "W108" H 4450 7745 50  0000 C CNN
F 1 "Hole_2.0" H 4450 7675 50  0000 C CNN
F 2 "MDJ_mod:1pin_2.0" H 4650 7475 50  0001 C CNN
F 3 "" H 4650 7475 50  0000 C CNN
	1    4450 7475
	1    0    0    -1  
$EndComp
Text Label 2750 6675 2    39   ~ 0
PwpRstb
$Comp
L MDJ_compo:V1P2A #PWR0110
U 1 1 5B51BED5
P 3600 875
F 0 "#PWR0110" H 3600 725 50  0001 C CNN
F 1 "V1P2A" H 3600 1015 39  0000 C CNN
F 2 "" H 3600 875 50  0000 C CNN
F 3 "" H 3600 875 50  0000 C CNN
	1    3600 875 
	1    0    0    -1  
$EndComp
$Comp
L power:PWR_FLAG #FLG0101
U 1 1 5B53101A
P 775 4475
F 0 "#FLG0101" H 775 4550 50  0001 C CNN
F 1 "PWR_FLAG" H 775 4625 39  0000 C CNN
F 2 "" H 775 4475 50  0001 C CNN
F 3 "" H 775 4475 50  0001 C CNN
	1    775  4475
	1    0    0    -1  
$EndComp
$Comp
L power:PWR_FLAG #FLG0105
U 1 1 5B53875A
P 6325 7050
F 0 "#FLG0105" H 6325 7125 50  0001 C CNN
F 1 "PWR_FLAG" H 6550 7125 50  0000 C CNN
F 2 "" H 6325 7050 50  0001 C CNN
F 3 "" H 6325 7050 50  0001 C CNN
	1    6325 7050
	1    0    0    -1  
$EndComp
Wire Wire Line
	3850 875  3850 1075
Wire Wire Line
	3600 1175 3950 1175
Wire Wire Line
	3850 1475 3950 1475
Connection ~ 3850 1075
Wire Wire Line
	3850 2375 3950 2375
Connection ~ 3850 1475
Wire Wire Line
	3850 2775 3950 2775
Connection ~ 3850 2375
Wire Wire Line
	3850 3175 3950 3175
Connection ~ 3850 2775
Wire Wire Line
	3600 1575 3950 1575
Connection ~ 3600 1175
Wire Wire Line
	3600 2475 3950 2475
Connection ~ 3600 1575
Wire Wire Line
	3600 2875 3950 2875
Connection ~ 3600 2475
Wire Wire Line
	3600 3275 3950 3275
Connection ~ 3600 2875
Wire Wire Line
	3950 1275 3750 1275
Wire Wire Line
	3750 1275 3750 1375
Wire Wire Line
	3950 1375 3750 1375
Connection ~ 3750 1375
Wire Wire Line
	3950 1675 3750 1675
Connection ~ 3750 1675
Wire Wire Line
	3950 1775 3750 1775
Connection ~ 3750 1775
Wire Wire Line
	3950 1875 3750 1875
Connection ~ 3750 1875
Wire Wire Line
	3950 1975 3750 1975
Connection ~ 3750 1975
Wire Wire Line
	3750 2075 3950 2075
Connection ~ 3750 2075
Wire Wire Line
	3950 2175 3750 2175
Connection ~ 3750 2175
Wire Wire Line
	3950 2275 3750 2275
Connection ~ 3750 2275
Wire Wire Line
	3950 2575 3750 2575
Connection ~ 3750 2575
Wire Wire Line
	3950 2675 3750 2675
Connection ~ 3750 2675
Wire Wire Line
	3950 2975 3750 2975
Connection ~ 3750 2975
Wire Wire Line
	3950 3075 3750 3075
Connection ~ 3750 3075
Wire Wire Line
	3950 3375 3750 3375
Connection ~ 3750 3375
Wire Wire Line
	4450 2775 4900 2775
Wire Wire Line
	4450 2875 4900 2875
Wire Wire Line
	4450 2075 4650 2075
Wire Wire Line
	4450 1475 4900 1475
Wire Wire Line
	4450 1575 4900 1575
Wire Wire Line
	4450 975  4550 975 
Wire Wire Line
	4550 975  4550 1275
Wire Wire Line
	4450 1275 4550 1275
Connection ~ 4550 1275
Wire Wire Line
	4450 1375 4550 1375
Connection ~ 4550 1375
Wire Wire Line
	4450 1675 4550 1675
Connection ~ 4550 1675
Wire Wire Line
	4450 1775 4550 1775
Connection ~ 4550 1775
Wire Wire Line
	4450 1875 4550 1875
Connection ~ 4550 1875
Wire Wire Line
	4450 2175 4550 2175
Connection ~ 4550 2175
Wire Wire Line
	4450 2275 4550 2275
Connection ~ 4550 2275
Wire Wire Line
	4450 2575 4550 2575
Connection ~ 4550 2575
Wire Wire Line
	4450 2675 4550 2675
Connection ~ 4550 2675
Wire Wire Line
	4450 2975 4550 2975
Connection ~ 4550 2975
Wire Wire Line
	4450 3075 4550 3075
Connection ~ 4550 3075
Wire Wire Line
	4450 3375 4550 3375
Connection ~ 4550 3375
Wire Wire Line
	1000 4175 1000 4475
Wire Wire Line
	2500 4175 2500 4475
Wire Wire Line
	2500 4475 2300 4475
Connection ~ 1000 4475
Wire Wire Line
	1200 1425 750  1425
Wire Wire Line
	2300 1325 2750 1325
Wire Wire Line
	2300 1525 2750 1525
Wire Wire Line
	2300 1625 2750 1625
Wire Wire Line
	2300 1825 2750 1825
Wire Wire Line
	2300 1925 2750 1925
Wire Wire Line
	1000 4175 2500 4175
Wire Wire Line
	1200 4375 1100 4375
Wire Wire Line
	2300 4375 2400 4375
Wire Wire Line
	1100 6975 1200 6975
Connection ~ 1100 6975
Wire Wire Line
	2300 6975 2400 6975
Connection ~ 2400 6975
Wire Wire Line
	1100 3525 1200 3525
Connection ~ 1100 3525
Wire Wire Line
	2400 3525 2300 3525
Connection ~ 2400 3525
Wire Wire Line
	2300 925  2400 925 
Wire Wire Line
	1200 925  1100 925 
Wire Wire Line
	2750 6875 2300 6875
Wire Wire Line
	750  6675 1200 6675
Wire Wire Line
	750  6875 1200 6875
Wire Wire Line
	1000 3425 1000 3625
Wire Wire Line
	1000 3625 2500 3625
Wire Wire Line
	2500 3625 2500 3425
Wire Wire Line
	2500 3425 2300 3425
Connection ~ 3550 7475
Connection ~ 3700 7475
Connection ~ 3850 7475
Connection ~ 4000 7475
Wire Wire Line
	3400 7475 3550 7475
Connection ~ 4150 7475
Connection ~ 5350 7475
Connection ~ 5200 7475
Connection ~ 5050 7475
Connection ~ 4900 7475
Connection ~ 4750 7475
Connection ~ 4300 7475
Connection ~ 4600 7475
Connection ~ 4450 7475
Text Notes 7375 7500 0    60   ~ 0
VFE_CATIA_LiteDTU-v1_1C
Text Notes 8150 7650 0    60   ~ 0
2019/02/06
$Comp
L Device:R R101
U 1 1 5B4F06B5
P 650 775
F 0 "R101" V 730 775 39  0000 C CNN
F 1 "1k" V 650 775 39  0000 C CNN
F 2 "Resistor_SMD:R_0402_1005Metric" V 580 775 50  0001 C CNN
F 3 "" H 650 775 50  0000 C CNN
	1    650  775 
	-1   0    0    1   
$EndComp
Wire Wire Line
	3850 1075 3950 1075
Wire Wire Line
	3850 1075 3850 1475
Wire Wire Line
	3850 1475 3850 2375
Wire Wire Line
	3850 2375 3850 2775
Wire Wire Line
	3850 2775 3850 3175
Wire Wire Line
	3600 1175 3600 1575
Wire Wire Line
	3600 1575 3600 2475
Wire Wire Line
	3600 2475 3600 2875
Wire Wire Line
	3600 2875 3600 3275
Wire Wire Line
	3750 1375 3750 1675
Wire Wire Line
	3750 1675 3750 1775
Wire Wire Line
	3750 1775 3750 1875
Wire Wire Line
	3750 1875 3750 1975
Wire Wire Line
	3750 1975 3750 2075
Wire Wire Line
	3750 2075 3750 2175
Wire Wire Line
	3750 2175 3750 2275
Wire Wire Line
	3750 2275 3750 2575
Wire Wire Line
	3750 2575 3750 2675
Wire Wire Line
	3750 2675 3750 2975
Wire Wire Line
	3750 2975 3750 3075
Wire Wire Line
	3750 3075 3750 3375
Wire Wire Line
	3750 3375 3750 3525
Wire Wire Line
	4550 1275 4550 1375
Wire Wire Line
	4550 1375 4550 1675
Wire Wire Line
	4550 1675 4550 1775
Wire Wire Line
	4550 1775 4550 1875
Wire Wire Line
	4550 1875 4550 2175
Wire Wire Line
	4550 2175 4550 2275
Wire Wire Line
	4550 2275 4550 2575
Wire Wire Line
	4550 2575 4550 2675
Wire Wire Line
	4550 2675 4550 2975
Wire Wire Line
	4550 2975 4550 3075
Wire Wire Line
	4550 3075 4550 3375
Wire Wire Line
	4550 3375 4550 3525
Wire Wire Line
	1000 4475 1200 4475
Wire Wire Line
	1100 6975 1100 7175
Wire Wire Line
	2400 6975 2400 7175
Wire Wire Line
	1100 3525 1100 3725
Wire Wire Line
	2400 3525 2400 3725
Wire Wire Line
	1000 3425 1200 3425
Wire Wire Line
	3550 7475 3700 7475
Wire Wire Line
	3700 7475 3850 7475
Wire Wire Line
	3850 7475 4000 7475
Wire Wire Line
	4000 7475 4150 7475
Wire Wire Line
	4150 7475 4300 7475
Wire Wire Line
	5350 7475 5500 7475
Wire Wire Line
	5200 7475 5350 7475
Wire Wire Line
	5050 7475 5200 7475
Wire Wire Line
	4900 7475 5050 7475
Wire Wire Line
	4750 7475 4900 7475
Wire Wire Line
	4300 7475 4450 7475
Wire Wire Line
	4600 7475 4750 7475
Wire Wire Line
	4450 7475 4600 7475
$Comp
L Device:R R104
U 1 1 5BA4013C
P 800 775
F 0 "R104" V 880 775 39  0000 C CNN
F 1 "1k" V 800 775 39  0000 C CNN
F 2 "Resistor_SMD:R_0402_1005Metric" V 730 775 50  0001 C CNN
F 3 "" H 800 775 50  0000 C CNN
	1    800  775 
	-1   0    0    -1  
$EndComp
$Comp
L MDJ_compo:V1P2D #PWR0101
U 1 1 5DA47D91
P 650 625
F 0 "#PWR0101" H 650 475 50  0001 C CNN
F 1 "V1P2D" H 650 750 39  0000 C CNN
F 2 "" H 650 625 50  0000 C CNN
F 3 "" H 650 625 50  0000 C CNN
	1    650  625 
	1    0    0    -1  
$EndComp
Text Label 4700 2475 0    39   ~ 0
C_Leak
Text Label 4700 2375 0    39   ~ 0
C_Ch
Wire Wire Line
	4450 2375 4900 2375
Wire Wire Line
	4450 2475 4900 2475
Text Label 4700 3275 0    39   ~ 0
A_Leak
Text Label 4700 3175 0    39   ~ 0
A_Ch
Wire Wire Line
	4450 3175 4900 3175
Wire Wire Line
	4450 3275 4900 3275
Text Label 4700 1175 0    39   ~ 0
E_Leak
Text Label 4700 1075 0    39   ~ 0
E_Ch
Wire Wire Line
	4450 1075 4900 1075
Wire Wire Line
	4450 1175 4900 1175
Text Label 750  1425 0    39   ~ 0
A_PllLock
Wire Wire Line
	2750 6675 2300 6675
Text Label 2750 2625 2    50   ~ 0
B_D0+
Text Label 2750 2325 2    50   ~ 0
B_Clk+
Text Label 750  2925 0    39   ~ 0
B_OVF
Wire Wire Line
	2300 2325 2750 2325
Wire Wire Line
	2300 2425 2750 2425
Wire Wire Line
	2300 2625 2750 2625
Wire Wire Line
	2300 2725 2750 2725
Text Label 750  2225 0    39   ~ 0
B_PllLock
Text Label 2750 2925 2    50   ~ 0
B_CalBusy
Text Label 2750 2725 2    50   ~ 0
B_D0-
Text Label 2750 2425 2    50   ~ 0
B_Clk-
Text Label 750  2825 0    39   ~ 0
B_SEUA
Text Label 750  2525 0    39   ~ 0
B_SEUD
Wire Wire Line
	1200 2225 750  2225
Wire Wire Line
	2300 2925 2750 2925
Wire Wire Line
	1200 2925 750  2925
Wire Wire Line
	1200 2825 750  2825
Wire Wire Line
	1200 2525 750  2525
Text Label 2750 4675 2    39   ~ 0
C_D0+
Wire Wire Line
	2300 3125 2750 3125
Wire Wire Line
	2300 3225 2750 3225
Wire Wire Line
	2300 4675 2750 4675
Text Label 2750 4775 2    39   ~ 0
C_D0-
Wire Wire Line
	1200 3025 750  3025
Wire Wire Line
	2750 4975 2300 4975
Wire Wire Line
	1200 4975 750  4975
Wire Wire Line
	1200 4875 750  4875
Text Label 2750 3225 2    50   ~ 0
C_Clk-
Text Label 750  4875 0    39   ~ 0
C_SEUA
Text Label 750  3325 0    39   ~ 0
C_SEUD
Wire Wire Line
	1200 3325 750  3325
Text Label 2750 3125 2    50   ~ 0
C_Clk+
Text Label 750  4975 0    39   ~ 0
C_OVF
Wire Wire Line
	2300 4775 2750 4775
Text Label 750  3025 0    39   ~ 0
C_PllLock
Text Label 2750 4975 2    39   ~ 0
C_CalBusy
Text Label 2750 5475 2    39   ~ 0
D_D0+
Text Label 2750 5175 2    39   ~ 0
D_Clk+
Text Label 750  5775 0    39   ~ 0
D_OVF
Wire Wire Line
	2300 5175 2750 5175
Wire Wire Line
	2300 5275 2750 5275
Wire Wire Line
	2300 5475 2750 5475
Wire Wire Line
	2300 5575 2750 5575
Text Label 750  5075 0    39   ~ 0
D_PllLock
Text Label 2750 5775 2    39   ~ 0
D_CalBusy
Text Label 2750 6275 2    39   ~ 0
E_D0+
Text Label 2750 5975 2    39   ~ 0
E_Clk+
Text Label 750  1725 0    39   ~ 0
I2C_SCL_DTU
Wire Wire Line
	2300 5975 2750 5975
Wire Wire Line
	2300 6075 2750 6075
Text Label 750  5875 0    39   ~ 0
E_PllLock
Text Label 750  2025 0    39   ~ 0
I2C_SDA_DTU
Text Label 2750 5575 2    39   ~ 0
D_D0-
Text Label 2750 5275 2    39   ~ 0
D_Clk-
Text Label 750  5375 0    39   ~ 0
D_SEUD
Wire Wire Line
	1200 5075 750  5075
Wire Wire Line
	2750 5775 2300 5775
Wire Wire Line
	1200 5775 750  5775
Wire Wire Line
	1200 5675 750  5675
Wire Wire Line
	1200 5375 750  5375
Text Label 2750 6375 2    39   ~ 0
E_D0-
Text Label 2750 6075 2    39   ~ 0
E_Clk-
Text Label 750  6475 0    39   ~ 0
E_SEUA
Text Label 750  6175 0    39   ~ 0
E_SEUD
Wire Wire Line
	1200 5875 750  5875
Wire Wire Line
	1200 6475 750  6475
Wire Wire Line
	1200 6175 750  6175
Text Label 750  5675 0    39   ~ 0
D_SEUA
Text Label 2750 6775 2    39   ~ 0
Calib_ADC
Wire Wire Line
	2750 6775 2300 6775
$Comp
L MDJ_compo:V1P2D #PWR0104
U 1 1 5DF43165
P 775 3625
F 0 "#PWR0104" H 775 3475 50  0001 C CNN
F 1 "V1P2D" H 825 3775 39  0000 C CNN
F 2 "" H 775 3625 50  0000 C CNN
F 3 "" H 775 3625 50  0000 C CNN
	1    775  3625
	1    0    0    -1  
$EndComp
Wire Wire Line
	775  3625 1000 3625
Connection ~ 1000 3625
$Comp
L power:GNDD #PWR0107
U 1 1 5DF5C768
P 1100 7175
F 0 "#PWR0107" H 1100 6925 50  0001 C CNN
F 1 "GNDD" H 1100 7025 50  0000 C CNN
F 2 "" H 1100 7175 50  0000 C CNN
F 3 "" H 1100 7175 50  0000 C CNN
	1    1100 7175
	1    0    0    -1  
$EndComp
$Comp
L power:GNDD #PWR0109
U 1 1 5DF5C80B
P 2400 7175
F 0 "#PWR0109" H 2400 6925 50  0001 C CNN
F 1 "GNDD" H 2400 7025 50  0000 C CNN
F 2 "" H 2400 7175 50  0000 C CNN
F 3 "" H 2400 7175 50  0000 C CNN
	1    2400 7175
	1    0    0    -1  
$EndComp
$Comp
L power:GNDD #PWR0106
U 1 1 5DF5C84F
P 1100 3725
F 0 "#PWR0106" H 1100 3475 50  0001 C CNN
F 1 "GNDD" H 1100 3600 39  0000 C CNN
F 2 "" H 1100 3725 50  0000 C CNN
F 3 "" H 1100 3725 50  0000 C CNN
	1    1100 3725
	1    0    0    -1  
$EndComp
$Comp
L power:GNDD #PWR0108
U 1 1 5DF5C8A6
P 2400 3725
F 0 "#PWR0108" H 2400 3475 50  0001 C CNN
F 1 "GNDD" H 2400 3600 39  0000 C CNN
F 2 "" H 2400 3725 50  0000 C CNN
F 3 "" H 2400 3725 50  0000 C CNN
	1    2400 3725
	1    0    0    -1  
$EndComp
Text Label 4025 4375 0    39   ~ 0
C_Ch
Text Label 4025 4475 0    39   ~ 0
C_Leak
Text Label 4025 4775 0    39   ~ 0
A_Clk+
Text Label 4025 4875 0    39   ~ 0
A_Clk-
Text Label 4025 4975 0    39   ~ 0
I2C_SCL_CATIA
Text Label 4025 5075 0    39   ~ 0
I2C_SDA_CATIA
Text Label 4025 4575 0    39   ~ 0
TP_trigger
Text Label 6000 5675 2    39   ~ 0
D_PllLock
Text Label 6000 4375 2    39   ~ 0
A_D0+
Text Label 6000 4475 2    39   ~ 0
A_D0-
Text Label 6000 5275 2    39   ~ 0
D_OVF
Text Label 6000 5375 2    39   ~ 0
D_CalBusy
Text Label 6000 5475 2    39   ~ 0
D_SEUD
Text Label 6000 5575 2    39   ~ 0
D_SEUA
Wire Wire Line
	4025 4375 4550 4375
Wire Wire Line
	4025 4475 4550 4475
Wire Wire Line
	4025 4775 4550 4775
Wire Wire Line
	4025 4875 4550 4875
Wire Wire Line
	4025 4975 4550 4975
Wire Wire Line
	4025 5075 4550 5075
Wire Wire Line
	4025 4575 4550 4575
Wire Wire Line
	6000 4375 5700 4375
Wire Wire Line
	6000 5675 5700 5675
Wire Wire Line
	6000 5575 5700 5575
Wire Wire Line
	6000 5475 5700 5475
Wire Wire Line
	6000 5375 5700 5375
Wire Wire Line
	6000 5275 5700 5275
Wire Wire Line
	6000 4475 5700 4475
Wire Wire Line
	4550 4675 4025 4675
Text Label 4025 5625 0    39   ~ 0
ReSync+
Text Label 4025 5725 0    39   ~ 0
ReSync-
Wire Wire Line
	4025 5625 4550 5625
Wire Wire Line
	4025 5725 4550 5725
Text Label 4025 5825 0    39   ~ 0
CalibMode
Text Label 4025 5925 0    39   ~ 0
TestMode
Wire Wire Line
	4025 5825 4550 5825
Wire Wire Line
	4025 5925 4550 5925
Text Label 4025 6025 0    39   ~ 0
PwpRstb
Wire Wire Line
	4025 6025 4550 6025
Text Label 4025 4675 0    39   ~ 0
Temp_CATIA
$Comp
L power:GNDA #PWR0116
U 1 1 5E4DDE73
P 4650 2075
F 0 "#PWR0116" H 4650 1825 50  0001 C CNN
F 1 "GNDA" H 4650 1925 39  0000 C CNN
F 2 "" H 4650 2075 50  0000 C CNN
F 3 "" H 4650 2075 50  0000 C CNN
	1    4650 2075
	1    0    0    -1  
$EndComp
Text Label 750  6775 0    39   ~ 0
TP_trigger
Wire Wire Line
	1200 6775 750  6775
Wire Wire Line
	2300 1225 2750 1225
NoConn ~ 14800 2150
Wire Wire Line
	1100 925  1100 1225
Wire Wire Line
	1100 4375 1100 4575
Wire Wire Line
	2400 4375 2400 4575
Wire Wire Line
	2400 925  2400 1025
Wire Wire Line
	800  925  800  1025
Wire Wire Line
	650  925  650  1125
Wire Wire Line
	800  625  650  625 
Connection ~ 650  625 
Wire Wire Line
	2300 6475 2400 6475
Connection ~ 2400 6475
Wire Wire Line
	2400 6475 2400 6975
Wire Wire Line
	2300 6175 2400 6175
Connection ~ 2400 6175
Wire Wire Line
	2400 6175 2400 6475
Wire Wire Line
	2300 5875 2400 5875
Connection ~ 2400 5875
Wire Wire Line
	2400 5875 2400 6175
Wire Wire Line
	1200 5975 1100 5975
Connection ~ 1100 5975
Wire Wire Line
	1100 5975 1100 6075
Wire Wire Line
	1200 6075 1100 6075
Connection ~ 1100 6075
Wire Wire Line
	1200 6375 1100 6375
Wire Wire Line
	1100 6075 1100 6275
Connection ~ 1100 6375
Wire Wire Line
	1100 6375 1100 6975
Wire Wire Line
	1200 6275 1100 6275
Connection ~ 1100 6275
Wire Wire Line
	1100 6275 1100 6375
Wire Wire Line
	1200 5575 1100 5575
Connection ~ 1100 5575
Wire Wire Line
	1100 5575 1100 5975
Wire Wire Line
	1200 5475 1100 5475
Connection ~ 1100 5475
Wire Wire Line
	1100 5475 1100 5575
Wire Wire Line
	2300 5375 2400 5375
Connection ~ 2400 5375
Wire Wire Line
	2300 5675 2400 5675
Wire Wire Line
	2400 5375 2400 5675
Connection ~ 2400 5675
Wire Wire Line
	2400 5675 2400 5875
Wire Wire Line
	2300 5075 2400 5075
Connection ~ 2400 5075
Wire Wire Line
	2400 5075 2400 5375
Wire Wire Line
	2300 4875 2400 4875
Connection ~ 2400 4875
Wire Wire Line
	2400 4875 2400 5075
Wire Wire Line
	2300 4575 2400 4575
Connection ~ 2400 4575
Wire Wire Line
	2400 4575 2400 4875
Wire Wire Line
	1200 4575 1100 4575
Connection ~ 1100 4575
Wire Wire Line
	1100 4575 1100 4675
Wire Wire Line
	1200 4675 1100 4675
Connection ~ 1100 4675
Wire Wire Line
	1100 4675 1100 4775
Wire Wire Line
	1200 4775 1100 4775
Connection ~ 1100 4775
Wire Wire Line
	1100 4775 1100 5175
Wire Wire Line
	2300 3325 2400 3325
Connection ~ 2400 3325
Wire Wire Line
	2400 3325 2400 3525
Wire Wire Line
	2300 3025 2400 3025
Connection ~ 2400 3025
Wire Wire Line
	2400 3025 2400 3325
Wire Wire Line
	2300 2825 2400 2825
Connection ~ 2400 2825
Wire Wire Line
	2400 2825 2400 3025
Wire Wire Line
	2300 2525 2400 2525
Connection ~ 2400 2525
Wire Wire Line
	2400 2525 2400 2825
Wire Wire Line
	2300 2225 2400 2225
Connection ~ 2400 2225
Wire Wire Line
	2400 2225 2400 2525
Wire Wire Line
	2300 2025 2400 2025
Connection ~ 2400 2025
Wire Wire Line
	2400 2025 2400 2225
Wire Wire Line
	1200 2325 1100 2325
Connection ~ 1100 2325
Wire Wire Line
	1100 2325 1100 2425
Wire Wire Line
	1200 2425 1100 2425
Connection ~ 1100 2425
Wire Wire Line
	1100 2425 1100 2625
Wire Wire Line
	1200 2625 1100 2625
Connection ~ 1100 2625
Wire Wire Line
	1100 2625 1100 2725
Wire Wire Line
	1200 2725 1100 2725
Connection ~ 1100 2725
Wire Wire Line
	1100 2725 1100 3125
Wire Wire Line
	1200 3125 1100 3125
Connection ~ 1100 3125
Wire Wire Line
	1100 3125 1100 3225
Wire Wire Line
	1200 3225 1100 3225
Connection ~ 1100 3225
Wire Wire Line
	1100 3225 1100 3525
Wire Wire Line
	1200 1925 1100 1925
Connection ~ 1100 1925
Wire Wire Line
	1100 1925 1100 2325
Wire Wire Line
	1200 1825 1100 1825
Connection ~ 1100 1825
Wire Wire Line
	1100 1825 1100 1925
Wire Wire Line
	1200 1625 1100 1625
Connection ~ 1100 1625
Wire Wire Line
	1100 1625 1100 1825
Wire Wire Line
	1200 1525 1100 1525
Connection ~ 1100 1525
Wire Wire Line
	1100 1525 1100 1625
Wire Wire Line
	1200 1325 1100 1325
Connection ~ 1100 1325
Wire Wire Line
	1100 1325 1100 1525
Wire Wire Line
	1200 1225 1100 1225
Connection ~ 1100 1225
Wire Wire Line
	1100 1225 1100 1325
Wire Wire Line
	2300 1025 2400 1025
Connection ~ 2400 1025
Wire Wire Line
	2400 1025 2400 1125
Wire Wire Line
	2300 1125 2400 1125
Connection ~ 2400 1125
Wire Wire Line
	2400 1125 2400 1425
Wire Wire Line
	2300 1425 2400 1425
Connection ~ 2400 1425
Wire Wire Line
	2400 1425 2400 1725
Wire Wire Line
	2300 1725 2400 1725
Connection ~ 2400 1725
Wire Wire Line
	2400 1725 2400 2025
Wire Wire Line
	1200 5175 1100 5175
Connection ~ 1100 5175
Wire Wire Line
	1100 5175 1100 5275
Wire Wire Line
	1200 5275 1100 5275
Connection ~ 1100 5275
Wire Wire Line
	1100 5275 1100 5475
$Comp
L Device:R R105
U 1 1 5C992EF0
P 2925 1275
F 0 "R105" V 3005 1275 50  0000 C CNN
F 1 "100" V 2925 1275 50  0000 C CNN
F 2 "Resistor_SMD:R_0402_1005Metric" V 2855 1275 50  0001 C CNN
F 3 "" H 2925 1275 50  0000 C CNN
	1    2925 1275
	-1   0    0    -1  
$EndComp
Wire Wire Line
	2750 1225 2750 1125
Wire Wire Line
	2750 1125 2925 1125
Wire Wire Line
	2750 1325 2750 1425
Wire Wire Line
	2750 1425 2925 1425
Text Label 6000 4575 2    39   ~ 0
B_D0+
Text Label 6000 4675 2    39   ~ 0
B_D0-
Wire Wire Line
	6000 4575 5700 4575
Wire Wire Line
	6000 4675 5700 4675
Text Label 6000 4775 2    39   ~ 0
C_D0+
Text Label 6000 4875 2    39   ~ 0
C_D0-
Wire Wire Line
	6000 4775 5700 4775
Wire Wire Line
	6000 4875 5700 4875
Text Label 6000 4975 2    39   ~ 0
D_D0+
Text Label 6000 5075 2    39   ~ 0
D_D0-
Wire Wire Line
	6000 4975 5700 4975
Wire Wire Line
	6000 5075 5700 5075
$Comp
L Connector_Generic:Conn_01x02 J103
U 1 1 5E2BDB97
P 6650 1000
F 0 "J103" H 6730 992 39  0000 L CNN
F 1 "Conn_01x02" H 6730 901 39  0000 L CNN
F 2 "Connector_PinHeader_2.54mm:PinHeader_1x02_P2.54mm_Vertical" H 6650 1000 50  0001 C CNN
F 3 "~" H 6650 1000 50  0001 C CNN
	1    6650 1000
	1    0    0    -1  
$EndComp
Text Notes 6050 725  0    60   ~ 0
3.3V for AD5689R
NoConn ~ 2750 2325
NoConn ~ 2750 2425
NoConn ~ 2750 2925
NoConn ~ 2750 3125
NoConn ~ 2750 3225
NoConn ~ 2750 4975
NoConn ~ 2750 5175
NoConn ~ 2750 5275
NoConn ~ 2750 5975
NoConn ~ 2750 6075
NoConn ~ 750  6475
NoConn ~ 750  6175
NoConn ~ 750  5875
NoConn ~ 750  4975
NoConn ~ 750  4875
NoConn ~ 750  3325
NoConn ~ 750  3025
NoConn ~ 750  2925
NoConn ~ 750  2825
NoConn ~ 750  2525
NoConn ~ 750  2225
NoConn ~ 4900 1075
NoConn ~ 4900 1175
NoConn ~ 4900 1475
NoConn ~ 4900 1575
NoConn ~ 4900 2775
NoConn ~ 4900 2875
NoConn ~ 4900 3175
NoConn ~ 4900 3275
$Comp
L power:PWR_FLAG #FLG0104
U 1 1 5CF3DD5D
P 6150 1000
F 0 "#FLG0104" H 6150 1075 50  0001 C CNN
F 1 "PWR_FLAG" H 6150 1174 50  0000 C CNN
F 2 "" H 6150 1000 50  0001 C CNN
F 3 "~" H 6150 1000 50  0001 C CNN
	1    6150 1000
	1    0    0    -1  
$EndComp
Wire Wire Line
	6150 1000 6450 1000
Text Label 750  6675 0    39   ~ 0
TestMode
$Comp
L Device:R R?
U 1 1 5D0E2723
P 5200 1975
AR Path="/59140D2B/5D0E2723" Ref="R?"  Part="1" 
AR Path="/5B5208C5/5D0E2723" Ref="R?"  Part="1" 
AR Path="/5E0256B5/5D0E2723" Ref="R?"  Part="1" 
AR Path="/5E108C88/5D0E2723" Ref="R?"  Part="1" 
AR Path="/5E130590/5D0E2723" Ref="R?"  Part="1" 
AR Path="/5E1C420C/5D0E2723" Ref="R?"  Part="1" 
AR Path="/5D0E2723" Ref="R106"  Part="1" 
F 0 "R106" V 5280 1975 39  0000 C CNN
F 1 "65k" V 5200 1975 39  0000 C CNN
F 2 "Resistor_SMD:R_0402_1005Metric" V 5130 1975 50  0001 C CNN
F 3 "" H 5200 1975 50  0000 C CNN
	1    5200 1975
	0    -1   -1   0   
$EndComp
Wire Wire Line
	4450 1975 5050 1975
$Comp
L MDJ_compo:V1P2A #PWR0117
U 1 1 5D128DB0
P 5350 1975
F 0 "#PWR0117" H 5350 1825 50  0001 C CNN
F 1 "V1P2A" H 5350 2115 39  0000 C CNN
F 2 "" H 5350 1975 50  0000 C CNN
F 3 "" H 5350 1975 50  0000 C CNN
	1    5350 1975
	1    0    0    -1  
$EndComp
Wire Wire Line
	2300 6275 2750 6275
Wire Wire Line
	2300 6375 2750 6375
Wire Wire Line
	800  1025 1200 1025
Wire Wire Line
	650  1125 1200 1125
$Comp
L Device:R R103
U 1 1 5D90C336
P 650 2175
F 0 "R103" V 730 2175 39  0000 C CNN
F 1 "1k" V 650 2175 39  0000 C CNN
F 2 "Resistor_SMD:R_0402_1005Metric" V 580 2175 50  0001 C CNN
F 3 "" H 650 2175 50  0000 C CNN
	1    650  2175
	-1   0    0    1   
$EndComp
$Comp
L Device:R R102
U 1 1 5D90C33C
P 650 1575
F 0 "R102" V 730 1575 39  0000 C CNN
F 1 "1k" V 650 1575 39  0000 C CNN
F 2 "Resistor_SMD:R_0402_1005Metric" V 580 1575 50  0001 C CNN
F 3 "" H 650 1575 50  0000 C CNN
	1    650  1575
	-1   0    0    -1  
$EndComp
$Comp
L MDJ_compo:V1P2D #PWR0102
U 1 1 5D90C342
P 650 1425
F 0 "#PWR0102" H 650 1275 50  0001 C CNN
F 1 "V1P2D" H 650 1550 39  0000 C CNN
F 2 "" H 650 1425 50  0000 C CNN
F 3 "" H 650 1425 50  0000 C CNN
	1    650  1425
	1    0    0    -1  
$EndComp
$Comp
L power:GNDD #PWR0103
U 1 1 5D973126
P 650 2325
F 0 "#PWR0103" H 650 2075 50  0001 C CNN
F 1 "GNDD" H 650 2175 39  0000 C CNN
F 2 "" H 650 2325 50  0000 C CNN
F 3 "" H 650 2325 50  0000 C CNN
	1    650  2325
	1    0    0    -1  
$EndComp
Text Label 4025 5175 0    39   ~ 0
I2C_SCL_DTU
Text Label 4025 5275 0    39   ~ 0
I2C_SDA_DTU
Wire Wire Line
	4025 5175 4550 5175
Wire Wire Line
	4025 5275 4550 5275
NoConn ~ 750  1425
Text Label 750  6575 0    39   ~ 0
E_OVF
Wire Wire Line
	1200 6575 750  6575
Text Label 2750 6575 2    39   ~ 0
E_CalBusy
Wire Wire Line
	2750 6575 2300 6575
NoConn ~ 2750 6575
NoConn ~ 750  6575
Wire Wire Line
	650  1725 1200 1725
Wire Wire Line
	650  2025 1200 2025
Text Label 750  2125 0    39   ~ 0
A_OVF
Wire Wire Line
	1200 2125 750  2125
NoConn ~ 750  2125
Text Label 2750 2125 2    50   ~ 0
A_CalBusy
Wire Wire Line
	2300 2125 2750 2125
NoConn ~ 2750 2125
NoConn ~ 2750 6275
NoConn ~ 2750 6375
Text Label 6900 1475 0    39   ~ 0
I2C_SCL_DTU
Text Label 6900 1650 0    39   ~ 0
I2C_SDA_DTU
Wire Wire Line
	6900 1475 7300 1475
Wire Wire Line
	6900 1650 7300 1650
Text Label 6200 1475 0    39   ~ 0
I2C_SCL_CATIA
Text Label 6200 1650 0    39   ~ 0
I2C_SDA_CATIA
Wire Wire Line
	6200 1475 6600 1475
Wire Wire Line
	6200 1650 6600 1650
$Comp
L Device:R R107
U 1 1 5D37B7DE
P 6750 1475
F 0 "R107" V 6830 1475 50  0000 C CNN
F 1 "0" V 6750 1475 50  0000 C CNN
F 2 "Resistor_SMD:R_0402_1005Metric" V 6680 1475 50  0001 C CNN
F 3 "" H 6750 1475 50  0000 C CNN
	1    6750 1475
	0    1    -1   0   
$EndComp
$Comp
L Device:R R108
U 1 1 5D37BA68
P 6750 1650
F 0 "R108" V 6830 1650 50  0000 C CNN
F 1 "0" V 6750 1650 50  0000 C CNN
F 2 "Resistor_SMD:R_0402_1005Metric" V 6680 1650 50  0001 C CNN
F 3 "" H 6750 1650 50  0000 C CNN
	1    6750 1650
	0    1    -1   0   
$EndComp
Wire Wire Line
	6325 7050 6325 7225
Wire Wire Line
	6125 7350 6125 7225
Wire Wire Line
	6125 7225 6325 7225
Connection ~ 6325 7225
Wire Wire Line
	6325 7225 6325 7350
$Comp
L Connector_Generic:Conn_02x03_Odd_Even J104
U 1 1 5F17756C
P 7750 3500
F 0 "J104" H 7800 3817 50  0000 C CNN
F 1 "Conn_02x03_Odd_Even" H 7800 3726 50  0000 C CNN
F 2 "Connector_PinHeader_2.54mm:PinHeader_2x03_P2.54mm_Vertical" H 7750 3500 50  0001 C CNN
F 3 "~" H 7750 3500 50  0001 C CNN
	1    7750 3500
	1    0    0    -1  
$EndComp
Wire Wire Line
	8325 3600 8050 3600
Text Label 7300 3400 0    39   ~ 0
SPI_DIN
Text Label 8100 3400 0    39   ~ 0
SPI_CLK
Wire Wire Line
	7550 3600 7275 3600
Text Label 7300 3600 0    39   ~ 0
VCC0
Wire Wire Line
	8050 3400 8400 3400
Wire Wire Line
	7275 3400 7550 3400
$Comp
L Device:C C101
U 1 1 5F177594
P 7275 3750
F 0 "C101" H 7300 3825 39  0000 L CNN
F 1 "10u" H 7300 3675 39  0000 L CNN
F 2 "Capacitor_SMD:C_0402_1005Metric" H 7313 3600 50  0001 C CNN
F 3 "~" H 7275 3750 50  0001 C CNN
	1    7275 3750
	1    0    0    -1  
$EndComp
$Comp
L power:GNDD #PWR0121
U 1 1 5F2B0E45
P 8325 3600
F 0 "#PWR0121" H 8325 3350 50  0001 C CNN
F 1 "GNDD" H 8325 3450 39  0000 C CNN
F 2 "" H 8325 3600 50  0000 C CNN
F 3 "" H 8325 3600 50  0000 C CNN
	1    8325 3600
	1    0    0    -1  
$EndComp
$Comp
L power:GNDD #PWR0122
U 1 1 5F2B0FC8
P 7275 3900
F 0 "#PWR0122" H 7275 3650 50  0001 C CNN
F 1 "GNDD" H 7275 3750 39  0000 C CNN
F 2 "" H 7275 3900 50  0000 C CNN
F 3 "" H 7275 3900 50  0000 C CNN
	1    7275 3900
	1    0    0    -1  
$EndComp
Text Label 6000 5775 2    39   ~ 0
SPI_CLK
Wire Wire Line
	5700 5775 6000 5775
Text Label 6000 5850 2    39   ~ 0
SPI_DIN
Wire Wire Line
	5700 5850 6000 5850
Text Label 6000 5925 2    39   ~ 0
SPI_CSb
Wire Wire Line
	5700 5925 6000 5925
Wire Wire Line
	5700 6000 6000 6000
Text Label 6000 6075 2    39   ~ 0
DAC_VDD
Wire Wire Line
	5700 6075 6000 6075
Text Label 6000 6000 2    39   ~ 0
VCC0
Text Label 7300 3500 0    39   ~ 0
SPI_CSb
Wire Wire Line
	7275 3500 7550 3500
NoConn ~ 8050 3500
Text Label 6200 1000 0    39   ~ 0
DAC_VDD
$Comp
L power:GNDD #PWR0123
U 1 1 5F3F3FC2
P 6450 1100
F 0 "#PWR0123" H 6450 850 50  0001 C CNN
F 1 "GNDD" H 6450 950 39  0000 C CNN
F 2 "" H 6450 1100 50  0000 C CNN
F 3 "" H 6450 1100 50  0000 C CNN
	1    6450 1100
	1    0    0    -1  
$EndComp
$Comp
L power:PWR_FLAG #FLG0106
U 1 1 5F459509
P 7075 3600
F 0 "#FLG0106" H 7075 3675 50  0001 C CNN
F 1 "PWR_FLAG" H 7075 3750 39  0000 C CNN
F 2 "" H 7075 3600 50  0001 C CNN
F 3 "~" H 7075 3600 50  0001 C CNN
	1    7075 3600
	1    0    0    -1  
$EndComp
Wire Wire Line
	7075 3600 7275 3600
Connection ~ 7275 3600
Wire Wire Line
	775  4475 1000 4475
Wire Wire Line
	1000 3625 1000 4175
Connection ~ 1000 4175
Text Label 4025 5525 0    39   ~ 0
Calib_ADC
Wire Wire Line
	4550 5525 4025 5525
$Sheet
S 4550 4275 1150 1850
U 5E108C88
F0 "channel_C" 60
F1 "channel.sch" 60
F2 "Clk+" I L 4550 4775 39 
F3 "Clk-" I L 4550 4875 39 
F4 "In" I L 4550 4375 39 
F5 "Leak" I L 4550 4475 39 
F6 "Calib_trigger" I L 4550 4575 39 
F7 "Tsensor" I L 4550 4675 39 
F8 "Dout0-" O R 5700 4475 39 
F9 "Dout0+" O R 5700 4375 39 
F10 "ReSync+" I L 4550 5625 39 
F11 "ReSync-" I L 4550 5725 39 
F12 "OVF" O R 5700 5275 39 
F13 "CalBusy" O R 5700 5375 39 
F14 "SEUD" O R 5700 5475 39 
F15 "SEUA" O R 5700 5575 39 
F16 "PllLock" O R 5700 5675 39 
F17 "CalIbMode" I L 4550 5825 39 
F18 "TestMode" I L 4550 5925 39 
F19 "PwpRstb" I L 4550 6025 39 
F20 "Dout1-" O R 5700 4675 39 
F21 "Dout1+" O R 5700 4575 39 
F22 "Dout2-" O R 5700 4875 39 
F23 "Dout2+" O R 5700 4775 39 
F24 "Dout3-" O R 5700 5075 39 
F25 "Dout3+" O R 5700 4975 39 
F26 "I2C_SCL_DTU" I L 4550 5175 39 
F27 "I2C_SDA_DTU" I L 4550 5275 39 
F28 "I2C_SCL_CATIA" I L 4550 4975 39 
F29 "I2C_SDA_CATIA" I L 4550 5075 39 
F30 "SPI_CLK" I R 5700 5775 39 
F31 "SPI_DIN" I R 5700 5850 39 
F32 "SPI_CSb" I R 5700 5925 39 
F33 "SPI_Vlogic" I R 5700 6000 39 
F34 "DAC_VDD" I R 5700 6075 39 
F35 "CalIb_ADC" I L 4550 5525 39 
$EndSheet
Wire Wire Line
	3600 875  3600 1175
$EndSCHEMATC
